{
  "success": true,
  "messages": null,
  "data": {
      "content": [
          {
              "id": 22,
              "titre": "Soutenons Fatima Zahra : Opération Vitale pour sa Colonne Vertébrale ",
              "nomPation": "Fatima Zahra Baradi",
              "titrePation": "Un Appel à la Solidarité : Soutenons Fatima Zahra dans son Combat",
              "slugTitre": null,
              "description": "Fatima Zahra a besoin de nous. Une déformation de la colonne vertébrale ne doit pas définir son avenir. Faisons preuve de solidarité et contribuons à son opération salvatrice. ",
              "dateDepot": "2024-06-10",
              "dateFin": "2024-01-12",
              "objectVue": 90000,
              "actualVue": 0,
              "status": "PUBLIEE",
              "categorie": {
                  "id": 8,
                  "code": "gjr249e8nc9r493fw18k",
                  "label": "Santé",
                  "description": null,
                  "email": null,
                  "ordre": null,
                  "more": null
              },
              "partner": {
                  "id": 60120,
                  "code": "ci36wecldjjn0oqaaentzmjjiu57v5yiwd9qx6xlwe75huilvp",
                  "label": "Les Conserveries Marocaines DOHA  Anonymisé ",
                  "description": null,
                  "email": null,
                  "ordre": null,
                  "more": {
                      "tel": " 0528241263 ",
                      "template/email": "doha@conserveriesdoha.com "
                  }
              },
              "spot": {
                  "id": 25,
                  "code": null,
                  "label": "\tLes Conserveries Marocaines DOHA Anonymisé",
                  "description": null,
                  "email": null,
                  "ordre": null,
                  "more": null
              },
              "uniqueCode": "2w8ik1qru0mgeroz5e8nz4c2fewoszujn52u4njn",
              "uniqueCodeVideo": null,
              "uniqueCodeAction": "cmpr6448nbitll0lve5qa216pz1s8rreo9q3dh5w",
              "uniqueCodeAfterAction": null,
              "targetPrice": "27",
              "sourcePrice": "90000",
              "progressPrice": "0",
              "imageBlob": null,
              "videoBlob": null,
              "actionBlob": null,
              "afterActionBlob": null,
              "ville": {
                  "createdBy": null,
                  "updatedBy": null,
                  "createdAt": null,
                  "updatedAt": null,
                  "id": 2,
                  "code": null,
                  "label": "CASABLANCA",
                  "labelAr": null,
                  "ordre": null,
                  "altitude": null,
                  "longitude": null,
                  "pays": {
                      "createdBy": null,
                      "updatedBy": null,
                      "createdAt": null,
                      "updatedAt": null,
                      "id": 2,
                      "label": "Morocco",
                      "labelAr": null,
                      "code": "MA",
                      "villes": null
                  }
              },
              "isFavored": false,
              "actualDay": "0",
              "progressDay": "0",
              "active": false
          },
          {
              "id": 21,
              "titre": "Soutenons Hicham : Une Opération pour Redresser sa Vie",
              "nomPation": "Rafik Hicham ",
              "titrePation": "Espoir d'une Vie Sans Douleur : Soutenez Son Combat pour une Opération",
              "slugTitre": null,
              "description": "Hicham, un jeune courageux de 17 ans, a besoin d'une opération urgente pour redresser sa colonne vertébrale. Ensemble, offrons-lui l'espoir d'une vie sans douleur.  ",
              "dateDepot": "2024-06-10",
              "dateFin": "2024-02-15",
              "objectVue": 123200,
              "actualVue": 0,
              "status": "PUBLIEE",
              "categorie": {
                  "id": 8,
                  "code": "gjr249e8nc9r493fw18k",
                  "label": "Santé",
                  "description": null,
                  "email": null,
                  "ordre": null,
                  "more": null
              },
              "partner": {
                  "id": 60121,
                  "code": "pmdthx55nb6d3kqcr1eito67q51mipg3eiqyfxgdodl2avkybo",
                  "label": "OFPPT Anonymisé",
                  "description": null,
                  "email": null,
                  "ordre": null,
                  "more": {
                      "tel": "05 22 63 44 44 ",
                      "template/email": " contact@ofppt.ma "
                  }
              },
              "spot": {
                  "id": 27,
                  "code": null,
                  "label": "Grâce à une Démarche Intelligente, Votre Succés est à Portée de Main ",
                  "description": null,
                  "email": null,
                  "ordre": null,
                  "more": null
              },
              "uniqueCode": "orvagkac43q7d110uynju4geh4xa3mu19iku31oz",
              "uniqueCodeVideo": null,
              "uniqueCodeAction": "m77vu61g0kwtksqa9tccusg78l4xkh9ts3upcpdx",
              "uniqueCodeAfterAction": null,
              "targetPrice": "0",
              "sourcePrice": "123200",
              "progressPrice": "0",
              "imageBlob": null,
              "videoBlob": null,
              "actionBlob": null,
              "afterActionBlob": null,
              "ville": {
                  "createdBy": null,
                  "updatedBy": null,
                  "createdAt": null,
                  "updatedAt": null,
                  "id": 7,
                  "code": null,
                  "label": "MEKNES",
                  "labelAr": null,
                  "ordre": null,
                  "altitude": null,
                  "longitude": null,
                  "pays": {
                      "createdBy": null,
                      "updatedBy": null,
                      "createdAt": null,
                      "updatedAt": null,
                      "id": 2,
                      "label": "Morocco",
                      "labelAr": null,
                      "code": "MA",
                      "villes": null
                  }
              },
              "isFavored": false,
              "actualDay": "0",
              "progressDay": "0",
              "active": false
          },
          {
              "id": 20,
              "titre": "Aidons le cœur d'El Mehdi à battre plus fort",
              "nomPation": "Mehdi Atia",
              "titrePation": "Unis pour El Mehdi : Élever un Sourire, Cultiver la Solidarité ",
              "slugTitre": null,
              "description": "La vie d'El Mehdi est entre nos mains. Chaque partage compte, chaque geste fait la différence. Aidons ce petit cœur à battre plus fort.  ",
              "dateDepot": "2024-06-10",
              "dateFin": "2024-03-15",
              "objectVue": 110000,
              "actualVue": 0,
              "status": "ENREGISTREE",
              "categorie": {
                  "id": 8,
                  "code": "gjr249e8nc9r493fw18k",
                  "label": "Santé",
                  "description": null,
                  "email": null,
                  "ordre": null,
                  "more": null
              },
              "partner": {
                  "id": 60116,
                  "code": "212892d0xjro1x4ecl7luiz4wrjva01svcrohi7yknzcec70i8",
                  "label": "Inwi Anonymisé ",
                  "description": null,
                  "email": null,
                  "ordre": null,
                  "more": {
                      "tel": "+212529000000",
                      "template/email": "Admin10"
                  }
              },
              "spot": {
                  "id": 23,
                  "code": null,
                  "label": "#Khalik Diiima Hani ou m’connnecti fel les RS fine ma kounti m3a skhawate lforfi 99 dh_lil chaher",
                  "description": null,
                  "email": null,
                  "ordre": null,
                  "more": null
              },
              "uniqueCode": "sn5f7t5f0sfwjzqdls95qqb4h88lviapvujufx1h",
              "uniqueCodeVideo": null,
              "uniqueCodeAction": "fzyof6824b217kdlvq8xry0h8aa98j3j0jgvxvlk",
              "uniqueCodeAfterAction": null,
              "targetPrice": "1",
              "sourcePrice": "110000",
              "progressPrice": "0",
              "imageBlob": null,
              "videoBlob": null,
              "actionBlob": null,
              "afterActionBlob": null,
              "ville": {
                  "createdBy": null,
                  "updatedBy": null,
                  "createdAt": null,
                  "updatedAt": null,
                  "id": 2,
                  "code": null,
                  "label": "CASABLANCA",
                  "labelAr": null,
                  "ordre": null,
                  "altitude": null,
                  "longitude": null,
                  "pays": {
                      "createdBy": null,
                      "updatedBy": null,
                      "createdAt": null,
                      "updatedAt": null,
                      "id": 2,
                      "label": "Morocco",
                      "labelAr": null,
                      "code": "MA",
                      "villes": null
                  }
              },
              "isFavored": false,
              "actualDay": "0",
              "progressDay": "0",
              "active": false
          },
          {
              "id": 19,
              "titre": "Donnons une prothèse à Zineb !",
              "nomPation": "Zineb Addi",
              "titrePation": "Chaque Pas Compte: Aidons Zineb à Construire un Avenir Lumineux",
              "slugTitre": null,
              "description": "Chaque pas compte. Avec votre soutien, nous pouvons aider Zineb, une petite fille de 10 ans, à faire le premier pas vers un avenir plein d'espoir. Ensemble, changeons sa vie. ",
              "dateDepot": "2024-06-06",
              "dateFin": "2024-03-29",
              "objectVue": 15000,
              "actualVue": 0,
              "status": "ENREGISTREE",
              "categorie": {
                  "id": 8,
                  "code": "gjr249e8nc9r493fw18k",
                  "label": "Santé",
                  "description": null,
                  "email": null,
                  "ordre": null,
                  "more": null
              },
              "partner": {
                  "id": 60115,
                  "code": "oxvvhp79zido30l1iskfu2k4b34okexdj9p752lgy297qguq7v",
                  "label": "Aicha  Anonymisé ",
                  "description": null,
                  "email": null,
                  "ordre": null,
                  "more": {
                      "tel": "-",
                      "template/email": "-"
                  }
              },
              "spot": {
                  "id": 24,
                  "code": null,
                  "label": "Aicha Concentré de Tomates  _Ahssan Makayn_",
                  "description": null,
                  "email": null,
                  "ordre": null,
                  "more": null
              },
              "uniqueCode": "n2pfnhcwzeaaeaho1xiurxo2kkj74s8hl6do4g8e",
              "uniqueCodeVideo": null,
              "uniqueCodeAction": "njrj6q5g6t64u6zkejvcfzgmsvj8bw4r90c28dyu",
              "uniqueCodeAfterAction": null,
              "targetPrice": "1",
              "sourcePrice": "15000",
              "progressPrice": "0",
              "imageBlob": null,
              "videoBlob": null,
              "actionBlob": null,
              "afterActionBlob": null,
              "ville": {
                  "createdBy": null,
                  "updatedBy": null,
                  "createdAt": null,
                  "updatedAt": null,
                  "id": 2,
                  "code": null,
                  "label": "CASABLANCA",
                  "labelAr": null,
                  "ordre": null,
                  "altitude": null,
                  "longitude": null,
                  "pays": {
                      "createdBy": null,
                      "updatedBy": null,
                      "createdAt": null,
                      "updatedAt": null,
                      "id": 2,
                      "label": "Morocco",
                      "labelAr": null,
                      "code": "MA",
                      "villes": null
                  }
              },
              "isFavored": false,
              "actualDay": "0",
              "progressDay": "0",
              "active": false
          },
          {
              "id": 18,
              "titre": "Sauvons le cœur de Nour Eddine !",
              "nomPation": "Noureddine EL MOTRAJI",
              "titrePation": "Ensemble, nous pouvons offrir à Nour Eddine une chance de vivre. Contribuez à sa chirurgie cardiaque vitale!",
              "slugTitre": null,
              "description": "Votre générosité peut rendre cette opération possible et offrir un avenir plus lumineux. Contribuez à cette cause en faisant un don et donnez de l'espoir à ceux qui en ont besoin. Ensemble, faisons le premier pas vers la guérison.",
              "dateDepot": "2024-06-06",
              "dateFin": "2024-03-26",
              "objectVue": 150000,
              "actualVue": 0,
              "status": "PUBLIEE",
              "categorie": {
                  "id": 8,
                  "code": "gjr249e8nc9r493fw18k",
                  "label": "Santé",
                  "description": null,
                  "email": null,
                  "ordre": null,
                  "more": null
              },
              "partner": {
                  "id": 60120,
                  "code": "ci36wecldjjn0oqaaentzmjjiu57v5yiwd9qx6xlwe75huilvp",
                  "label": "Les Conserveries Marocaines DOHA  Anonymisé ",
                  "description": null,
                  "email": null,
                  "ordre": null,
                  "more": {
                      "tel": " 0528241263 ",
                      "template/email": "doha@conserveriesdoha.com "
                  }
              },
              "spot": {
                  "id": 26,
                  "code": null,
                  "label": "Délicia - spot confiture 100% naturelle",
                  "description": null,
                  "email": null,
                  "ordre": null,
                  "more": null
              },
              "uniqueCode": "hool3k8122tqqqb0g8phg62mjb0em3db8fm2ijsn",
              "uniqueCodeVideo": "daifcoln1wm9nxgkphicq0lajw0wlfhzplc0n2ee",
              "uniqueCodeAction": "phkayyuu9f9akcb3pgu1016j3c8n8g1qdkes2i51",
              "uniqueCodeAfterAction": null,
              "targetPrice": "0",
              "sourcePrice": "150000",
              "progressPrice": "0",
              "imageBlob": null,
              "videoBlob": null,
              "actionBlob": null,
              "afterActionBlob": null,
              "ville": {
                  "createdBy": null,
                  "updatedBy": null,
                  "createdAt": null,
                  "updatedAt": null,
                  "id": 2,
                  "code": null,
                  "label": "CASABLANCA",
                  "labelAr": null,
                  "ordre": null,
                  "altitude": null,
                  "longitude": null,
                  "pays": {
                      "createdBy": null,
                      "updatedBy": null,
                      "createdAt": null,
                      "updatedAt": null,
                      "id": 2,
                      "label": "Morocco",
                      "labelAr": null,
                      "code": "MA",
                      "villes": null
                  }
              },
              "isFavored": false,
              "actualDay": "0",
              "progressDay": "0",
              "active": false
          }
      ],
      "pageable": {
          "sort": {
              "empty": true,
              "sorted": false,
              "unsorted": true
          },
          "offset": 0,
          "pageSize": 5,
          "pageNumber": 0,
          "paged": true,
          "unpaged": false
      },
      "last": false,
      "totalElements": 18,
      "totalPages": 4,
      "first": true,
      "size": 5,
      "number": 0,
      "sort": {
          "empty": true,
          "sorted": false,
          "unsorted": true
      },
      "numberOfElements": 5,
      "empty": false
  }
}
